-- Merging decision tree log ---
manifest
ADDED from /media/atul/0391cb80-322a-4069-9813-c3f87d6db2b1/BAZZABIT/S M International/libraries/simple-crop-image-lib/AndroidManifest.xml:2:1-8:12
INJECTED from /media/atul/0391cb80-322a-4069-9813-c3f87d6db2b1/BAZZABIT/S M International/libraries/simple-crop-image-lib/AndroidManifest.xml:2:1-8:12
INJECTED from /media/atul/0391cb80-322a-4069-9813-c3f87d6db2b1/BAZZABIT/S M International/libraries/simple-crop-image-lib/AndroidManifest.xml:2:1-8:12
INJECTED from /media/atul/0391cb80-322a-4069-9813-c3f87d6db2b1/BAZZABIT/S M International/libraries/simple-crop-image-lib/AndroidManifest.xml:2:1-8:12
INJECTED from /media/atul/0391cb80-322a-4069-9813-c3f87d6db2b1/BAZZABIT/S M International/libraries/simple-crop-image-lib/AndroidManifest.xml:2:1-8:12
INJECTED from /media/atul/0391cb80-322a-4069-9813-c3f87d6db2b1/BAZZABIT/S M International/libraries/simple-crop-image-lib/AndroidManifest.xml:2:1-8:12
INJECTED from /media/atul/0391cb80-322a-4069-9813-c3f87d6db2b1/BAZZABIT/S M International/libraries/simple-crop-image-lib/AndroidManifest.xml:2:1-8:12
	package
		ADDED from /media/atul/0391cb80-322a-4069-9813-c3f87d6db2b1/BAZZABIT/S M International/libraries/simple-crop-image-lib/AndroidManifest.xml:3:11-57
		INJECTED from /media/atul/0391cb80-322a-4069-9813-c3f87d6db2b1/BAZZABIT/S M International/libraries/simple-crop-image-lib/AndroidManifest.xml
		INJECTED from /media/atul/0391cb80-322a-4069-9813-c3f87d6db2b1/BAZZABIT/S M International/libraries/simple-crop-image-lib/AndroidManifest.xml
	android:versionName
		ADDED from /media/atul/0391cb80-322a-4069-9813-c3f87d6db2b1/BAZZABIT/S M International/libraries/simple-crop-image-lib/AndroidManifest.xml:5:11-36
		INJECTED from /media/atul/0391cb80-322a-4069-9813-c3f87d6db2b1/BAZZABIT/S M International/libraries/simple-crop-image-lib/AndroidManifest.xml
		INJECTED from /media/atul/0391cb80-322a-4069-9813-c3f87d6db2b1/BAZZABIT/S M International/libraries/simple-crop-image-lib/AndroidManifest.xml
	xmlns:android
		ADDED from /media/atul/0391cb80-322a-4069-9813-c3f87d6db2b1/BAZZABIT/S M International/libraries/simple-crop-image-lib/AndroidManifest.xml:2:11-69
	android:versionCode
		ADDED from /media/atul/0391cb80-322a-4069-9813-c3f87d6db2b1/BAZZABIT/S M International/libraries/simple-crop-image-lib/AndroidManifest.xml:4:11-34
		INJECTED from /media/atul/0391cb80-322a-4069-9813-c3f87d6db2b1/BAZZABIT/S M International/libraries/simple-crop-image-lib/AndroidManifest.xml
		INJECTED from /media/atul/0391cb80-322a-4069-9813-c3f87d6db2b1/BAZZABIT/S M International/libraries/simple-crop-image-lib/AndroidManifest.xml
uses-sdk
ADDED from /media/atul/0391cb80-322a-4069-9813-c3f87d6db2b1/BAZZABIT/S M International/libraries/simple-crop-image-lib/AndroidManifest.xml:7:5-47
INJECTED from /media/atul/0391cb80-322a-4069-9813-c3f87d6db2b1/BAZZABIT/S M International/libraries/simple-crop-image-lib/AndroidManifest.xml:7:5-47
INJECTED from /media/atul/0391cb80-322a-4069-9813-c3f87d6db2b1/BAZZABIT/S M International/libraries/simple-crop-image-lib/AndroidManifest.xml:7:5-47
	android:targetSdkVersion
		ADDED from /media/atul/0391cb80-322a-4069-9813-c3f87d6db2b1/BAZZABIT/S M International/libraries/simple-crop-image-lib/AndroidManifest.xml:7:15-44
	android:minSdkVersion
		INJECTED from /media/atul/0391cb80-322a-4069-9813-c3f87d6db2b1/BAZZABIT/S M International/libraries/simple-crop-image-lib/AndroidManifest.xml
		ADDED from /media/atul/0391cb80-322a-4069-9813-c3f87d6db2b1/BAZZABIT/S M International/libraries/simple-crop-image-lib/AndroidManifest.xml:7:5-47
		INJECTED from /media/atul/0391cb80-322a-4069-9813-c3f87d6db2b1/BAZZABIT/S M International/libraries/simple-crop-image-lib/AndroidManifest.xml
